{
    "/public/js/app.js": "/public/js/app.js",
    "/assets/css/bpanel-inspinia.css": "/assets/css/bpanel-inspinia.css",
    "/public/css/app.css": "/public/css/app.css",
    "/assets/css/bpanel.css": "/assets/css/bpanel.css"
}
